The final
…
##introduction

The aim to visualize the random data of different occupation and income and age in Canada.

##data

Random data collected from Generatedata.com [https://generatedata.com/]

# A tibble: 51 × 6
   Occupation  Average_Experience Median_Experience Average_Age Median_Age Count
   <chr>                    <dbl>             <dbl>       <dbl>      <dbl> <int>
 1 Accountant                4.33               5          27.5       27.5     6
 2 Actor                     7                  7.5        23.8       23       4
 3 Aeroplane …               4.67               5          23.7       23       3
 4 Agronomist                7.25               7          22.5       22.5     4
 5 Archeologi…               4.67               3          24.7       27       3
 6 Architect                 3.25               3          19.5       19       4
 7 Astronomer                5.33               4          24.3       25       3
 8 Auditor                   5.33               4.5        24         24.5     6
 9 Baker                     0.5                0.5        21         21       2
10 Biochemist                6.8                6          23.6       25       5
# ℹ 41 more rows
…
